[gd_scene load_steps=8 format=2]

[ext_resource path="res://scripts/Bird.gd" type="Script" id=1]
[ext_resource path="res://assets/1.png" type="Texture" id=2]
[ext_resource path="res://assets/2.png" type="Texture" id=3]
[ext_resource path="res://assets/3.png" type="Texture" id=4]
[ext_resource path="res://assets/4.png" type="Texture" id=5]

[sub_resource type="SpriteFrames" id=1]
animations = [ {
"frames": [ ExtResource( 2 ), ExtResource( 3 ), ExtResource( 4 ), ExtResource( 5 ) ],
"loop": true,
"name": "fly",
"speed": 12.0
}, {
"frames": [ ExtResource( 4 ) ],
"loop": true,
"name": "dead",
"speed": 0.0
} ]

[sub_resource type="RectangleShape2D" id=2]
extents = Vector2( 12.9427, 10 )

[node name="Bird" type="KinematicBody2D"]
scale = Vector2( 4, 4 )
script = ExtResource( 1 )

[node name="AnimatedSprite" type="AnimatedSprite" parent="."]
frames = SubResource( 1 )
animation = "dead"

[node name="CollisionShape2D" type="CollisionShape2D" parent="."]
shape = SubResource( 2 )

[node name="Timer" type="Timer" parent="."]
wait_time = 2.0
one_shot = true
[connection signal="timeout" from="Timer" to="." method="_on_Timer_timeout"]
